{
    "acceptedCards": "master,amex,diners,discover,maestro,visa",
    "accessToken": "",
    "accessURL": "https://api.mastercard.com/oauth/consumer/v1/access_token",
    "authHeader": "",
    "authLevelBasic": false,
    "callbackDomain": "http://www.givepiccolo.com",
    "callbackPath": "/OauthCallbackServlet",
    "callbackUrl": "http://www.givepiccolo.com/OauthCallbackServlet",
    "checkoutIdentifier": "a4a6x55eoe28dhxdvtpd41hxgd7ufe14r7",
    "checkoutOutResponse": "",
    "checkoutResourceURL": "",
    "checkoutXML": "",
    "connectedCallbackPath": "/OauthCallbackServlet?connect=true",
    "consumerKey": "RLqJXHB-mTyAPkXHLX5T2nqM-4gzB9xaZjBmzkR2ec493cc2!44346a53486c545745382b36643778327071374948673d3d",
    "encodedAuthHeader": "",
    "expressCallbackPath": "http://www.givepiccolo.com/PairingCallback?express=true",
    "expressCheckoutIndicator": false,
    "expressCheckoutUrl": "https://api.mastercard.com/mtf/masterpass/v6/expresscheckout",
    "expressSecurityRequired": false,
    "keystorePassword": "lepassword",
    "keystorePath": "Certs/MTFMCOpenAPI.p12",
    "lightboxUrl": "https://mtf.masterpass.com/lightbox/Switch/integration/MasterPass.client.js",
    "longAccessToken": "",
    "merchantInitUrl": "https://api.mastercard.com/mtf/masterpass/v6/merchant-initialization",
    "pairingCallbackPath": "http://www.givepiccolo.com/PairingCallback",
    "pairingDataTypes": [
        "CARD",
        "ADDRESS"
    ],
    "pairingToken": "af80b2c56e221920a5dd9048b233299d8abb799b",
    "pairingVerifier": "7d377eae003046d64b16ab1f9a870b0e0a7e3bc5",
    "postTransactionReceivedXml": "",
    "postTransactionSentXml": "",
    "postbackurl": "https://api.mastercard.com/mtf/masterpass/v6/transaction",
    "preCheckoutUrl": "https://api.mastercard.com/mtf/masterpass/v6/precheckout",
    "precheckoutTransactionId": "",
    "realm": "eWallet",
    "redirectShippingProfiles": "",
    "requestToken": "",
    "requestURL": "https://api.mastercard.com/oauth/consumer/v1/request_token",
    "rewards": false,
    "shipping": 895,
    "shippingProfiles": "US,CA,FR,MEX,NA,UK",
    "shippingSuppression": false,
    "shoppingCart": {
        "oauthToken": "12345",
        "originUrl": "http://www.givepiccolo.com",
        "shoppingCart": {
            "currencyCode": "USD",
            "shoppingCartItem": [
                {
                    "description": "XB\u00f8x 360\u00a9",
                    "imageURL": "drawable/xbox",
                    "quantity": 1,
                    "value": 29999
                },
                {
                    "description": "Cell Phon\u00e8\u2122",
                    "imageURL": "drawable/cell_phone",
                    "quantity": 1,
                    "value": 4999
                },
                {
                    "description": "27\" Mo\u00f1itor",
                    "imageURL": "drawable/monitor",
                    "quantity": 1,
                    "value": 24999
                },
                {
                    "description": "\u011carmin \u011cPS",
                    "imageURL": "drawable/garmin",
                    "quantity": 1,
                    "value": 14999
                }
            ],
            "subtotal": 74996
        }
    },
    "shoppingCartUrl": "https://api.mastercard.com/mtf/masterpass/v6/shopping-cart",
    "signatureBaseString": "",
    "tax": 348,
    "verifier": ""
}
